1 - New Text Document.txt
11 - New Text Document.txt
111 - New Text Document.txt
1111 - New Text Document.txt
11111 - New Text Document.txt
111111 - New Text Document.txt
1111111 - New Text Document.txt
11111111 - New Text Document.txt
111111111 - New Text Document.txt
1111111111 - New Text Document.txt
11111111111 - New Text Document.txt
111111111111 - New Text Document.txt
2222222222
222222222
22222222
2222222
222222
22222
2222
222
22
2
